Nodes	Component	Percent
1	Compute	82.75
1	I/O	10.36
4	Compute	82.38
4	I/O	10.95
8	Compute	82.07
8	I/O	10.37
16	Compute	83.33
16	I/O	10.55
32	Compute	82.14
32	I/O	10.71
#
#ggplot(speedupData, aes(Threads, y=Speedup, fill= Component, xlab="Number of Threads", ylab="Speedup"))+ geom_bar(stat="identity",position="dodge") +  theme(legend.position="bottom") + scale_x_continuous(breaks =  c(1,4,8,12,16)) + scale_y_continuous(breaks =  c(1,4,8,12,16))
#dev.copy(pdf,"parsnip_intra_scale.pdf")
